<svg width="21" height="16" viewBox="0 0 21 16" fill="none" xmlns="http://www.w3.org/2000/svg">
<path d="M1.65022 0C0.733866 0 1.31819e-08 0.776192 1.31819e-08 1.69283V1.96248C-3.92154e-05 2.14425 0.08748 2.31491 0.235116 2.42096L9.17024 8.82712C9.75817 9.24866 10.5558 9.24866 11.1437 8.82712L19.1854 3.06165V13.3546C19.1854 13.6884 18.9507 13.9188 18.6638 13.9188H16.7402C15.9771 13.9081 15.9771 15.0582 16.7402 15.0474H18.6638C19.5801 15.0474 20.314 14.2712 20.314 13.3546V1.69283C20.314 0.776192 19.5801 0 18.6638 0H1.65022ZM1.65022 1.12856H18.6638C18.9452 1.12856 19.1709 1.35383 19.1796 1.6774L10.4862 7.91017C10.2879 8.05233 10.0261 8.05233 9.82783 7.91017L1.13443 1.6774C1.14311 1.35383 1.36876 1.12856 1.65022 1.12856Z" fill="#313A4C"/>
<path d="M0.555519 4.02351C0.405991 4.02584 0.263505 4.08743 0.159356 4.19475C0.0552073 4.30207 -0.00208688 4.44634 5.81303e-05 4.59587V13.3547C5.81303e-05 14.2713 0.733926 15.0475 1.65028 15.0475H14.8594C14.9341 15.0485 15.0084 15.0347 15.0778 15.0068C15.1472 14.979 15.2103 14.9376 15.2636 14.8851C15.3168 14.8326 15.3591 14.77 15.388 14.701C15.4168 14.632 15.4317 14.558 15.4317 14.4832C15.4317 14.4084 15.4168 14.3344 15.388 14.2654C15.3591 14.1964 15.3168 14.1339 15.2636 14.0814C15.2103 14.0289 15.1472 13.9875 15.0778 13.9596C15.0084 13.9317 14.9341 13.9179 14.8594 13.9189H1.65028C1.36337 13.9189 1.12861 13.6885 1.12861 13.3547V4.59587C1.1297 4.52034 1.11561 4.44537 1.08718 4.37539C1.05875 4.30541 1.01657 4.24185 0.963126 4.18847C0.909682 4.1351 0.846066 4.09299 0.77605 4.06466C0.706034 4.03632 0.631042 4.02233 0.555519 4.02351Z" fill="#313A4C"/>
</svg>
