<svg width="20" height="20" viewBox="0 0 20 20" fill="none" xmlns="http://www.w3.org/2000/svg">
<path opacity="0.083334" d="M10.6418 2.32076C10.6418 1.95969 10.3548 1.66699 10.0008 1.66699C9.64683 1.66699 9.35986 1.95969 9.35986 2.32076V4.85892C9.35986 5.21999 9.64683 5.51269 10.0008 5.51269C10.3548 5.51269 10.6418 5.21999 10.6418 4.85892V2.32076Z" fill="#212121"/>
<path opacity="0.166667" d="M14.3941 3.67001C14.5746 3.35732 14.4725 2.96036 14.1659 2.78336C13.8594 2.60637 13.4645 2.71638 13.284 3.02907L12.0149 5.22717C11.8343 5.53987 11.9365 5.93683 12.2431 6.11383C12.5496 6.29082 12.9445 6.18081 13.125 5.86812L14.3941 3.67001Z" fill="#212121"/>
<path opacity="0.25" d="M16.9703 6.71634C17.283 6.53581 17.393 6.14094 17.216 5.83438C17.039 5.52781 16.642 5.42565 16.3293 5.60618L14.1312 6.87526C13.8185 7.0558 13.7085 7.45067 13.8855 7.75723C14.0625 8.06379 14.4595 8.16596 14.7722 7.98542L16.9703 6.71634Z" fill="#212121"/>
<path opacity="0.333334" d="M17.6788 10.6413C18.0398 10.6413 18.3325 10.3543 18.3325 10.0003C18.3325 9.64634 18.0398 9.35938 17.6788 9.35938H15.1406C14.7795 9.35938 14.4868 9.64634 14.4868 10.0003C14.4868 10.3543 14.7795 10.6413 15.1406 10.6413H17.6788Z" fill="#212121"/>
<path opacity="0.416667" d="M16.3285 14.3946C16.6412 14.5751 17.0382 14.473 17.2152 14.1664C17.3922 13.8598 17.2822 13.465 16.9695 13.2844L14.7714 12.0154C14.4587 11.8348 14.0617 11.937 13.8847 12.2436C13.7077 12.5501 13.8177 12.945 14.1304 13.1255L16.3285 14.3946Z" fill="#212121"/>
<path opacity="0.5" d="M13.2837 16.9693C13.4642 17.282 13.8591 17.392 14.1656 17.215C14.4722 17.038 14.5744 16.641 14.3938 16.3284L13.1247 14.1303C12.9442 13.8176 12.5493 13.7076 12.2428 13.8845C11.9362 14.0615 11.834 14.4585 12.0146 14.7712L13.2837 16.9693Z" fill="#212121"/>
<path opacity="0.583334" d="M9.35824 17.6792C9.35824 18.0403 9.64521 18.333 9.99919 18.333C10.3532 18.333 10.6401 18.0403 10.6401 17.6792V15.1411C10.6401 14.78 10.3532 14.4873 9.99919 14.4873C9.64521 14.4873 9.35824 14.78 9.35824 15.1411V17.6792Z" fill="#212121"/>
<path opacity="0.666667" d="M5.60589 16.33C5.42536 16.6427 5.52752 17.0396 5.83408 17.2166C6.14064 17.3936 6.53551 17.2836 6.71604 16.9709L7.98512 14.7728C8.16565 14.4601 8.06348 14.0632 7.75692 13.8862C7.45036 13.7092 7.0555 13.8192 6.87496 14.1319L5.60589 16.33Z" fill="#212121"/>
<path opacity="0.75" d="M3.02972 13.2837C2.71703 13.4642 2.60702 13.8591 2.78402 14.1656C2.96101 14.4722 3.35798 14.5744 3.67067 14.3938L5.86878 13.1247C6.18147 12.9442 6.29148 12.5493 6.11449 12.2428C5.93749 11.9362 5.54053 11.834 5.22783 12.0146L3.02972 13.2837Z" fill="#212121"/>
<path opacity="0.833334" d="M2.32125 9.35873C1.96018 9.35873 1.66748 9.64569 1.66748 9.99968C1.66748 10.3537 1.96018 10.6406 2.32125 10.6406H4.8594C5.22047 10.6406 5.51317 10.3537 5.51317 9.99968C5.51317 9.64569 5.22047 9.35873 4.8594 9.35873H2.32125Z" fill="#212121"/>
<path opacity="0.916667" d="M3.671 5.6054C3.3583 5.42487 2.96133 5.52703 2.78434 5.83359C2.60735 6.14016 2.71735 6.53502 3.03005 6.71556L5.22815 7.98463C5.54085 8.16517 5.93782 8.063 6.11481 7.75644C6.2918 7.44988 6.1818 7.05501 5.8691 6.87448L3.671 5.6054Z" fill="#212121"/>
<path d="M6.71634 3.0307C6.53581 2.71801 6.14094 2.608 5.83438 2.78499C5.52781 2.96199 5.42565 3.35896 5.60618 3.67165L6.87526 5.86976C7.0558 6.18246 7.45066 6.29246 7.75723 6.11547C8.06379 5.93848 8.16595 5.54151 7.98542 5.22881L6.71634 3.0307Z" fill="#212121"/>
</svg>
