<svg width="9" height="9" viewBox="0 0 9 9" fill="none" xmlns="http://www.w3.org/2000/svg">
<path fill-rule="evenodd" clip-rule="evenodd" d="M1.93183 1.93181C2.01622 1.84745 2.13066 1.80006 2.24998 1.80006C2.36931 1.80006 2.48375 1.84745 2.56813 1.93181L4.49998 3.86366L6.43183 1.93181C6.47334 1.88883 6.523 1.85455 6.5779 1.83097C6.6328 1.80738 6.69185 1.79497 6.7516 1.79445C6.81135 1.79393 6.87061 1.80532 6.92591 1.82794C6.98122 1.85057 7.03146 1.88398 7.07371 1.92624C7.11596 1.96849 7.14938 2.01873 7.172 2.07403C7.19463 2.12934 7.20602 2.18859 7.2055 2.24834C7.20498 2.30809 7.19256 2.36714 7.16898 2.42205C7.14539 2.47695 7.11111 2.5266 7.06813 2.56811L5.13628 4.49996L7.06813 6.43181C7.1501 6.51668 7.19546 6.63036 7.19444 6.74834C7.19341 6.86633 7.14609 6.9792 7.06265 7.06263C6.97922 7.14607 6.86635 7.19339 6.74836 7.19442C6.63037 7.19544 6.5167 7.15008 6.43183 7.06811L4.49998 5.13626L2.56813 7.06811C2.48326 7.15008 2.36959 7.19544 2.2516 7.19442C2.13361 7.19339 2.02075 7.14607 1.93731 7.06263C1.85388 6.9792 1.80656 6.86633 1.80553 6.74834C1.8045 6.63036 1.84986 6.51668 1.93183 6.43181L3.86368 4.49996L1.93183 2.56811C1.84747 2.48373 1.80008 2.36929 1.80008 2.24996C1.80008 2.13064 1.84747 2.0162 1.93183 1.93181Z" fill="#E53E3E"/>
</svg>
