<?xml version="1.0" standalone="no"?>
<!DOCTYPE svg PUBLIC "-//W3C//DTD SVG 20010904//EN"
 "http://www.w3.org/TR/2001/REC-SVG-20010904/DTD/svg10.dtd">
<svg version="1.0" xmlns="http://www.w3.org/2000/svg"
 width="162.000000pt" height="162.000000pt" viewBox="0 0 162.000000 162.000000"
 preserveAspectRatio="xMidYMid meet">
<metadata>
Created by potrace 1.14, written by Peter Selinger 2001-2017
</metadata>
<g transform="translate(0.000000,162.000000) scale(0.100000,-0.100000)"
fill="#000000" stroke="none">
<path d="M675 1536 c-153 -31 -259 -88 -370 -200 -90 -91 -135 -162 -171 -266
-105 -313 22 -662 304 -834 208 -126 475 -134 693 -20 316 166 459 550 328
882 -67 170 -181 294 -343 371 -55 27 -122 54 -148 60 -79 19 -217 22 -293 7z
m285 -122 c30 -9 75 -26 101 -39 l46 -24 23 24 c29 31 42 24 27 -15 -11 -29
-9 -32 44 -79 31 -28 75 -79 98 -115 l43 -65 29 14 c15 8 30 15 34 15 13 0 3
-26 -21 -51 -26 -27 -26 -28 -10 -76 81 -251 -55 -568 -296 -688 -100 -49
-167 -65 -273 -65 -173 0 -297 51 -420 175 -88 89 -134 168 -160 276 -19 82
-19 209 0 282 19 74 20 70 -11 107 -32 38 -25 49 19 28 l34 -16 31 51 c33 55
64 91 126 145 36 31 37 35 26 63 -16 37 -7 48 17 20 22 -27 25 -27 109 9 120
50 258 59 384 24z"/>
<path d="M800 1324 c0 -69 -26 -134 -54 -134 -23 0 -66 -40 -86 -81 -17 -32
-20 -59 -20 -164 l0 -125 -24 0 c-19 0 -23 -4 -19 -20 5 -19 0 -20 -87 -20
-87 0 -91 1 -85 20 6 17 2 20 -29 20 -29 0 -36 -4 -36 -20 0 -17 -7 -20 -50
-20 -61 0 -67 -18 -7 -22 41 -3 42 -4 45 -40 3 -37 3 -38 -32 -38 -20 0 -36
-4 -36 -10 0 -7 182 -10 525 -10 343 0 525 3 525 10 0 6 -16 10 -35 10 -24 0
-35 5 -35 15 0 11 11 15 40 15 51 0 53 18 3 22 -31 2 -39 7 -41 26 -2 12 -8
22 -13 22 -6 0 -7 9 -4 20 6 18 2 20 -30 20 -32 0 -37 -3 -32 -20 5 -19 0 -20
-88 -20 -88 0 -93 1 -88 20 4 15 0 20 -16 20 -20 0 -21 5 -21 114 0 154 -23
216 -94 250 -20 9 -42 26 -51 39 -19 27 -21 122 -2 114 47 -20 47 -20 47 5 0
17 -8 29 -25 36 -42 19 -45 15 -45 -54z m-74 -209 c-14 -38 -27 -55 -39 -55
-15 0 -16 3 -6 23 13 24 58 87 63 87 2 0 -6 -25 -18 -55z m214 -90 c0 -13 -20
-15 -137 -13 -98 2 -138 6 -141 16 -3 9 29 12 137 12 120 0 141 -2 141 -15z
m0 -90 l0 -65 -140 0 -140 0 0 65 0 65 140 0 140 0 0 -65z m-156 -98 c-3 -8
-24 -18 -47 -24 -23 -6 -49 -13 -58 -17 -12 -5 -16 0 -17 24 l-1 30 64 0 c50
0 63 -3 59 -13z m156 -17 l0 -29 -41 14 c-23 8 -49 15 -59 15 -10 0 -20 7 -24
15 -4 12 6 15 59 15 l65 0 0 -30z m-27 -45 c9 -4 17 -17 17 -28 0 -20 -2 -19
-28 6 -15 15 -33 27 -39 27 -7 0 -14 4 -18 9 -5 9 27 2 68 -14z m-164 13 c-2
-2 -19 -16 -37 -32 -31 -29 -32 -29 -32 -8 0 14 9 26 23 32 19 8 57 14 46 8z
m-329 -68 c0 -38 -2 -40 -30 -40 -27 0 -30 3 -30 33 0 40 6 47 37 47 20 0 23
-5 23 -40z m160 0 l0 -40 -70 0 -70 0 0 40 0 40 70 0 70 0 0 -40z m80 0 c0
-38 -2 -40 -30 -40 -28 0 -30 2 -30 40 0 38 2 40 30 40 28 0 30 -2 30 -40z
m340 0 c0 -36 -2 -40 -25 -40 -22 0 -25 4 -25 40 0 36 3 40 25 40 23 0 25 -4
25 -40z m168 -2 l3 -38 -75 0 -76 0 0 40 0 41 73 -3 72 -3 3 -37z m72 2 c0
-36 -2 -40 -25 -40 -22 0 -25 4 -25 40 0 36 3 40 25 40 23 0 25 -4 25 -40z
m-310 -30 c0 -6 -48 -10 -125 -10 -77 0 -125 4 -125 10 0 6 48 10 125 10 77 0
125 -4 125 -10z"/>
<path d="M700 930 c0 -29 4 -40 15 -40 11 0 15 11 15 40 0 29 -4 40 -15 40
-11 0 -15 -11 -15 -40z"/>
<path d="M760 930 c0 -29 4 -40 15 -40 11 0 15 11 15 40 0 29 -4 40 -15 40
-11 0 -15 -11 -15 -40z"/>
<path d="M820 930 c0 -29 4 -40 15 -40 11 0 15 11 15 40 0 29 -4 40 -15 40
-11 0 -15 -11 -15 -40z"/>
<path d="M880 930 c0 -29 4 -40 15 -40 11 0 15 11 15 40 0 29 -4 40 -15 40
-11 0 -15 -11 -15 -40z"/>
<path d="M472 1335 c13 -27 33 -69 44 -92 18 -40 34 -56 34 -33 0 18 23 10 52
-17 l28 -27 -31 78 c-26 62 -34 74 -42 61 -8 -15 -16 -11 -59 31 l-50 49 24
-50z"/>
<path d="M1105 1330 c-43 -44 -55 -49 -55 -23 0 28 -16 3 -44 -66 -14 -36 -26
-67 -26 -70 0 -2 13 8 30 24 24 23 32 26 44 16 13 -11 21 -1 52 66 20 43 38
81 41 86 10 16 -5 5 -42 -33z"/>
<path d="M220 1105 c0 -4 39 -50 87 -102 l88 -96 9 31 9 31 59 -30 c49 -25 58
-27 47 -11 -19 26 -147 162 -154 162 -3 0 -5 -11 -5 -25 0 -14 -3 -25 -6 -25
-3 0 -35 16 -70 36 -35 20 -64 33 -64 29z"/>
<path d="M1315 1074 c-33 -18 -63 -34 -67 -34 -5 0 -8 12 -8 28 -1 25 -7 20
-80 -58 -44 -47 -79 -88 -80 -93 0 -4 24 6 53 23 30 16 57 30 60 30 4 0 7 -13
7 -30 0 -16 3 -30 8 -30 7 0 126 127 165 177 24 30 15 28 -58 -13z"/>
<path d="M295 630 c3 -5 17 -10 30 -10 22 0 24 -5 28 -52 l3 -53 2 53 c2 51 3
52 32 52 l30 0 0 -90 c0 -53 4 -90 10 -90 6 0 10 37 10 90 l0 90 71 0 70 0 -3
-140 c-3 -137 -3 -139 20 -150 37 -16 391 -13 422 5 14 8 19 14 13 15 -10 0
-13 34 -13 135 l0 135 75 0 75 0 0 -97 c0 -67 3 -93 10 -83 5 8 10 52 10 98 0
81 0 82 25 82 24 0 25 -3 25 -57 0 -41 3 -54 10 -43 5 8 10 34 10 58 0 38 2
42 25 42 14 0 25 5 25 10 0 7 -177 10 -511 10 -337 0 -508 -3 -504 -10z m365
-146 l0 -135 -27 3 -28 3 -3 133 -3 132 31 0 30 0 0 -136z m40 1 c0 -83 -4
-135 -10 -135 -6 0 -10 52 -10 135 0 83 4 135 10 135 6 0 10 -52 10 -135z
m190 0 l0 -135 -85 0 -85 0 0 135 0 135 85 0 85 0 0 -135z m40 0 c0 -83 -4
-135 -10 -135 -6 0 -10 52 -10 135 0 83 4 135 10 135 6 0 10 -52 10 -135z m70
0 l0 -135 -25 0 -25 0 0 135 0 135 25 0 25 0 0 -135z"/>
<path d="M757 582 c-9 -10 -17 -22 -17 -25 0 -4 30 -7 66 -7 l66 0 -14 23
c-20 30 -78 35 -101 9z"/>
<path d="M740 490 c0 -20 5 -30 15 -30 10 0 15 10 15 30 0 20 -5 30 -15 30
-10 0 -15 -10 -15 -30z"/>
<path d="M787 513 c-4 -3 -7 -17 -7 -30 0 -16 6 -23 20 -23 16 0 20 7 20 30 0
28 -17 40 -33 23z"/>
<path d="M840 491 c0 -21 5 -31 16 -31 11 0 14 8 12 27 -4 39 -28 42 -28 4z"/>
<path d="M740 409 c0 -38 24 -35 28 4 2 19 -1 27 -12 27 -11 0 -16 -10 -16
-31z"/>
<path d="M782 413 c2 -17 9 -28 18 -28 9 0 16 11 18 28 3 22 -1 27 -18 27 -17
0 -21 -5 -18 -27z"/>
<path d="M840 409 c0 -38 24 -35 28 4 2 19 -1 27 -12 27 -11 0 -16 -10 -16
-31z"/>
<path d="M472 588 c-26 -26 -13 -38 44 -38 56 0 56 0 42 23 -17 25 -67 34 -86
15z"/>
<path d="M1050 581 c-15 -30 -14 -31 45 -31 58 0 66 7 37 33 -25 23 -69 22
-82 -2z"/>
<path d="M460 490 c0 -16 5 -30 10 -30 6 0 10 14 10 30 0 17 -4 30 -10 30 -5
0 -10 -13 -10 -30z"/>
<path d="M500 491 c0 -21 5 -31 16 -31 11 0 14 8 12 27 -4 39 -28 42 -28 4z"/>
<path d="M540 490 c0 -20 5 -30 15 -30 10 0 15 10 15 30 0 20 -5 30 -15 30
-10 0 -15 -10 -15 -30z"/>
<path d="M1040 491 c0 -21 5 -31 16 -31 11 0 14 8 12 27 -4 39 -28 42 -28 4z"/>
<path d="M1080 490 c0 -20 5 -30 15 -30 10 0 15 10 15 30 0 20 -5 30 -15 30
-10 0 -15 -10 -15 -30z"/>
<path d="M1120 490 c0 -20 5 -30 15 -30 10 0 15 10 15 30 0 20 -5 30 -15 30
-10 0 -15 -10 -15 -30z"/>
<path d="M460 426 c0 -8 5 -18 10 -21 6 -3 10 3 10 14 0 12 -4 21 -10 21 -5 0
-10 -6 -10 -14z"/>
<path d="M502 415 c4 -33 22 -33 26 0 2 18 -1 25 -13 25 -12 0 -15 -7 -13 -25z"/>
<path d="M542 415 c4 -33 22 -33 26 0 2 18 -1 25 -13 25 -12 0 -15 -7 -13 -25z"/>
<path d="M1042 415 c4 -33 22 -33 26 0 2 18 -1 25 -13 25 -12 0 -15 -7 -13
-25z"/>
<path d="M1082 415 c4 -33 22 -33 26 0 2 18 -1 25 -13 25 -12 0 -15 -7 -13
-25z"/>
<path d="M1120 419 c0 -24 23 -21 28 4 2 10 -3 17 -12 17 -10 0 -16 -9 -16
-21z"/>
</g>
</svg>
